module github.com/fww/core

go 1.20

require (
	github.com/DATA-DOG/go-sqlmock v1.5.0
	github.com/go-playground/validator/v10 v10.16.0
	github.com/gofiber/fiber/v2 v2.51.0
	github.com/gofiber/jwt/v3 v3.3.10
	github.com/golang-jwt/jwt/v4 v4.5.0
	github.com/golang/mock v1.6.0
	github.com/google/uuid v1.4.0
	github.com/joho/godotenv v1.5.1
	github.com/jpillora/backoff v1.0.0
	github.com/prometheus/client_golang v1.17.0
	github.com/sirupsen/logrus v1.9.3
	github.com/stretchr/testify v1.8.2
	go.uber.org/zap v1.26.0
	gorm.io/driver/postgres v1.5.4
	gorm.io/gorm v1.25.5
)

require (
	github.com/andybalholm/brotli v1.0.5 // indirect
	github.com/beorn7/perks v1.0.1 // indirect
	github.com/cespare/xxhash/v2 v2.2.0 // indirect
	github.com/davecgh/go-spew v1.1.1 // indirect
	github.com/gabriel-vasile/mimetype v1.4.2 // indirect
	github.com/go-playground/locales v0.14.1 // indirect
	github.com/go-playground/universal-translator v0.18.1 // indirect
	github.com/golang/protobuf v1.5.3 // indirect
	github.com/jackc/pgpassfile v1.0.0 // indirect
	github.com/jackc/pgservicefile v0.0.0-20221227161230-091c0ba34f0a // indirect
	github.com/jackc/pgx/v5 v5.4.3 // indirect
	github.com/jinzhu/inflection v1.0.0 // indirect
	github.com/jinzhu/now v1.1.5 // indirect
	github.com/klauspost/compress v1.16.7 // indirect
	github.com/leodido/go-urn v1.2.4 // indirect
	github.com/mattn/go-colorable v0.1.13 // indirect
	github.com/mattn/go-isatty v0.0.20 // indirect
	github.com/mattn/go-runewidth v0.0.15 // indirect
	github.com/matttproud/golang_protobuf_extensions v1.0.4 // indirect
	github.com/pmezard/go-difflib v1.0.0 // indirect
	github.com/prometheus/client_model v0.4.1-0.20230718164431-9a2bf3000d16 // indirect
	github.com/prometheus/common v0.44.0 // indirect
	github.com/prometheus/procfs v0.11.1 // indirect
	github.com/rivo/uniseg v0.4.4 // indirect
	github.com/valyala/bytebufferpool v1.0.0 // indirect
	github.com/valyala/fasthttp v1.50.0 // indirect
	github.com/valyala/tcplisten v1.0.0 // indirect
	go.uber.org/multierr v1.10.0 // indirect
	golang.org/x/crypto v0.14.0 // indirect
	golang.org/x/net v0.10.0 // indirect
	golang.org/x/sys v0.15.0 // indirect
	golang.org/x/text v0.13.0 // indirect
	google.golang.org/protobuf v1.31.0 // indirect
	gopkg.in/yaml.v3 v3.0.1 // indirect
)
