@startuml

!theme plain
top to bottom direction
skinparam linetype ortho

class payment_transactions {
   reservation_id: bigint
   code: varchar(50)
   status: integer
   created_at: timestamp
   updated_at: timestamp
   id: bigint
}
class reservations {
   flight_id: bigint
   user_id: bigint
   ktp: varchar(25)
   status: integer
   created_at: timestamp
   updated_at: timestamp
   id: bigint
}
class schema_migrations {
   version: varchar(255)
}

payment_transactions  -[#595959,plain]-^  reservations         : "reservation_id:id"
@enduml
